Anonymize Sensitive Data in R Objects • anon
…
c(
  starwars = anon(starwars),
  anon_data_summary()
)
#> === ANONYMIZED DATA CONTEXT ===
#> 
#> ---  starwars  ---
#> # A tibble: 87 × 14
#>    name  height     mass hair_color skin_color eye_color birth_year sex   gender
#>  * <chr> <chr>     <dbl> <chr>      <chr>      <chr>          <dbl> <chr> <chr> 
#>  1 ID 01 [160,180)   113 blond      fair       blue            53.5 male  mascu…
#>  2 ID 02 [160,180)    48 <NA>       gold       yellow         600   none  mascu…
#>  3 ID 03 [80,100)     82 <NA>       white, bl… red             52   none  mascu…
#>  4 ID 04 [200,220)    76 none       white      yellow          43   male  mascu…
#>  5 ID 05 [140,160)    40 brown      light      brown           53.5 fema… femin…
#>  6 ID 06 [160,180)    80 brown, gr… light      blue            47   male  mascu…
#>  7 ID 07 [160,180)    48 brown      light      blue           112   fema… femin…
#>  8 ID 08 [80,100)     82 <NA>       white, red red             NA   none  mascu…
#>  9 ID 09 [180,200)    85 black      light      brown           52   male  mascu…
#> 10 ID 10 [180,200)   113 auburn, w… fair       blue-gray       19   male  mascu…
#> # ℹ 77 more rows
#> # ℹ 5 more variables: homeworld <chr>, species <chr>, films <list>,
#> #   vehicles <list>, starships <list>
…
